{
  "coord": {
    "lon": 104.2964,
    "lat": 52.2978
  },
  "weather": [
    {
      "id": 800,
      "main": "Clear",
      "description": "clear sky",
      "icon": "01n"
    }
  ],
  "base": "stations",
  "main": {
    "temp": 282.58,
    "feels_like": 282.58,
    "temp_min": 282.58,
    "temp_max": 282.58,
    "pressure": 1004,
    "humidity": 66
  },
  "visibility": 10000,
  "wind": {
    "speed": 1,
    "deg": 0
  },
  "clouds": {
    "all": 0
  },
  "dt": 1622143710,
  "sys": {
    "type": 1,
    "id": 8891,
    "country": "RU",
    "sunrise": 1622148673,
    "sunset": 1622207356
  },
  "timezone": 28800,
  "id": 2023469,
  "name": "Irkutsk",
  "cod": 200
}